{
  "profiles": {
    "Parakeet.Net.ShuntServer": {
      "commandName": "Project",
      "environmentVariables": {
        "ASPNETCORE_ENVIRONMENT": "Development"
      },
      "applicationUrl": "https://localhost:5008;http://localhost:5007"
    }
  }
}